<svg xmlns="http://www.w3.org/2000/svg" xmlns:xlink="http://www.w3.org/1999/xlink" preserveAspectRatio="xMidYMid" width="21" height="28" viewBox="0 0 21 28">
  <defs>
    <style>
      .cls-1 {
        fill: #fff;
        filter: url(#color-overlay-1);
        fill-rule: evenodd;
      }
    </style>

    <filter id="color-overlay-1" filterUnits="userSpaceOnUse">
      <feFlood flood-color="#38499a"/>
      <feComposite operator="in" in2="SourceGraphic"/>
      <feBlend in2="SourceGraphic" result="solidFill"/>
    </filter>
  </defs>
  <path d="M10.500,-0.001 C4.700,-0.001 -0.000,4.702 -0.000,10.499 C-0.000,13.193 1.022,15.640 2.690,17.499 L10.500,27.999 L18.310,17.499 C19.978,15.640 21.000,13.193 21.000,10.499 C21.000,4.702 16.297,-0.001 10.500,-0.001 ZM10.500,13.999 C8.565,13.999 7.000,12.434 7.000,10.499 C7.000,8.568 8.565,6.999 10.500,6.999 C12.431,6.999 14.000,8.568 14.000,10.499 C14.000,12.434 12.431,13.999 10.500,13.999 Z" class="cls-1"/>
</svg>
