<svg xmlns="http://www.w3.org/2000/svg" xmlns:xlink="http://www.w3.org/1999/xlink" preserveAspectRatio="xMidYMid" width="16" height="16" viewBox="0 0 16 16">
  <defs>
    <style>
      .cls-1 {
        fill: #000;
        fill-rule: evenodd;
      }
    </style>
  </defs>
  <path d="M10.264,8.018 L15.558,2.716 C16.182,2.091 16.117,1.141 15.493,0.518 C14.869,-0.107 13.908,-0.157 13.284,0.469 L8.005,5.755 L2.741,0.486 C2.120,-0.139 1.091,-0.159 0.466,0.468 C-0.158,1.093 -0.145,2.118 0.479,2.743 L5.746,8.018 L0.491,13.279 C-0.133,13.905 -0.070,14.857 0.554,15.480 C1.178,16.105 2.133,16.163 2.757,15.536 L8.005,10.280 L13.256,15.541 C13.880,16.166 14.856,16.132 15.480,15.505 C16.104,14.880 16.186,13.949 15.562,13.324 L10.264,8.018 Z" class="cls-1"/>
</svg>
